{
    "meals": [
        {
            "strMeal": "Beef and Mustard Pie",
            "strMealThumb": "https:\/\/www.themealdb.com\/images\/media\/meals\/sytuqu1511553755.jpg",
            "idMeal": "52874"
        },
        {
            "strMeal": "Beef and Oyster pie",
            "strMealThumb": "https:\/\/www.themealdb.com\/images\/media\/meals\/wrssvt1511556563.jpg",
            "idMeal": "52878"
        },
        {
            "strMeal": "Beef Asado",
            "strMealThumb": "https:\/\/www.themealdb.com\/images\/media\/meals\/pkopc31683207947.jpg",
            "idMeal": "53071"
        },
        {
            "strMeal": "Beef Banh Mi Bowls with Sriracha Mayo, Carrot & Pickled Cucumber",
            "strMealThumb": "https:\/\/www.themealdb.com\/images\/media\/meals\/z0ageb1583189517.jpg",
            "idMeal": "52997"
        },
        {
            "strMeal": "Beef Bourguignon",
            "strMealThumb": "https:\/\/www.themealdb.com\/images\/media\/meals\/vtqxtu1511784197.jpg",
            "idMeal": "52904"
        },
        {
            "strMeal": "Beef Brisket Pot Roast",
            "strMealThumb": "https:\/\/www.themealdb.com\/images\/media\/meals\/ursuup1487348423.jpg",
            "idMeal": "52812"
        },
        {
            "strMeal": "Beef Caldereta",
            "strMealThumb": "https:\/\/www.themealdb.com\/images\/media\/meals\/41cxjh1683207682.jpg",
            "idMeal": "53070"
        },
        {
            "strMeal": "Beef Dumpling Stew",
            "strMealThumb": "https:\/\/www.themealdb.com\/images\/media\/meals\/uyqrrv1511553350.jpg",
            "idMeal": "52873"
        },
        {
            "strMeal": "Beef Lo Mein",
            "strMealThumb": "https:\/\/www.themealdb.com\/images\/media\/meals\/1529444830.jpg",
            "idMeal": "52952"
        },
        {
            "strMeal": "Beef Mechado",
            "strMealThumb": "https:\/\/www.themealdb.com\/images\/media\/meals\/cgl60b1683206581.jpg",
            "idMeal": "53068"
        },
        {
            "strMeal": "Beef Rendang",
            "strMealThumb": "https:\/\/www.themealdb.com\/images\/media\/meals\/bc8v651619789840.jpg",
            "idMeal": "53053"
        },
        {
            "strMeal": "Beef stroganoff",
            "strMealThumb": "https:\/\/www.themealdb.com\/images\/media\/meals\/svprys1511176755.jpg",
            "idMeal": "52834"
        },
        {
            "strMeal": "Beef Sunday Roast",
            "strMealThumb": "https:\/\/www.themealdb.com\/images\/media\/meals\/ssrrrs1503664277.jpg",
            "idMeal": "52824"
        },
        {
            "strMeal": "Beef Wellington",
            "strMealThumb": "https:\/\/www.themealdb.com\/images\/media\/meals\/vvpprx1487325699.jpg",
            "idMeal": "52803"
        },
        {
            "strMeal": "Big Mac",
            "strMealThumb": "https:\/\/www.themealdb.com\/images\/media\/meals\/urzj1d1587670726.jpg",
            "idMeal": "53013"
        },
        {
            "strMeal": "Bistek",
            "strMealThumb": "https:\/\/www.themealdb.com\/images\/media\/meals\/4pqimk1683207418.jpg",
            "idMeal": "53069"
        },
        {
            "strMeal": "Bitterballen (Dutch meatballs)",
            "strMealThumb": "https:\/\/www.themealdb.com\/images\/media\/meals\/lhqev81565090111.jpg",
            "idMeal": "52979"
        },
        {
            "strMeal": "Braised Beef Chilli",
            "strMealThumb": "https:\/\/www.themealdb.com\/images\/media\/meals\/uuqvwu1504629254.jpg",
            "idMeal": "52826"
        },
        {
            "strMeal": "Cevapi Sausages",
            "strMealThumb": "https:\/\/www.themealdb.com\/images\/media\/meals\/vc08jn1628769553.jpg",
            "idMeal": "53055"
        },
        {
            "strMeal": "Chivito uruguayo",
            "strMealThumb": "https:\/\/www.themealdb.com\/images\/media\/meals\/n7qnkb1630444129.jpg",
            "idMeal": "53063"
        },
        {
            "strMeal": "Corned Beef and Cabbage",
            "strMealThumb": "https:\/\/www.themealdb.com\/images\/media\/meals\/xb97a81583266727.jpg",
            "idMeal": "52998"
        },
        {
            "strMeal": "Croatian Bean Stew",
            "strMealThumb": "https:\/\/www.themealdb.com\/images\/media\/meals\/tnwy8m1628770384.jpg",
            "idMeal": "53058"
        },
        {
            "strMeal": "Croatian lamb peka",
            "strMealThumb": "https:\/\/www.themealdb.com\/images\/media\/meals\/pn59o51628769837.jpg",
            "idMeal": "53056"
        },
        {
            "strMeal": "Egyptian Fatteh",
            "strMealThumb": "https:\/\/www.themealdb.com\/images\/media\/meals\/rlwcc51598734603.jpg",
            "idMeal": "53031"
        },
        {
            "strMeal": "Go\u0142\u0105bki (cabbage roll)",
            "strMealThumb": "https:\/\/www.themealdb.com\/images\/media\/meals\/q8sp3j1593349686.jpg",
            "idMeal": "53021"
        },
        {
            "strMeal": "Irish stew",
            "strMealThumb": "https:\/\/www.themealdb.com\/images\/media\/meals\/sxxpst1468569714.jpg",
            "idMeal": "52781"
        },
        {
            "strMeal": "Jamaican Beef Patties",
            "strMealThumb": "https:\/\/www.themealdb.com\/images\/media\/meals\/wsqqsw1515364068.jpg",
            "idMeal": "52938"
        },
        {
            "strMeal": "Ma Po Tofu",
            "strMealThumb": "https:\/\/www.themealdb.com\/images\/media\/meals\/1525874812.jpg",
            "idMeal": "52947"
        },
        {
            "strMeal": "Massaman Beef curry",
            "strMealThumb": "https:\/\/www.themealdb.com\/images\/media\/meals\/tvttqv1504640475.jpg",
            "idMeal": "52827"
        },
        {
            "strMeal": "Minced Beef Pie",
            "strMealThumb": "https:\/\/www.themealdb.com\/images\/media\/meals\/xwutvy1511555540.jpg",
            "idMeal": "52876"
        },
        {
            "strMeal": "Montreal Smoked Meat",
            "strMealThumb": "https:\/\/www.themealdb.com\/images\/media\/meals\/uttupv1511815050.jpg",
            "idMeal": "52927"
        },
        {
            "strMeal": "Moussaka",
            "strMealThumb": "https:\/\/www.themealdb.com\/images\/media\/meals\/ctg8jd1585563097.jpg",
            "idMeal": "53006"
        },
        {
            "strMeal": "Mulukhiyah",
            "strMealThumb": "https:\/\/www.themealdb.com\/images\/media\/meals\/x372ug1598733932.jpg",
            "idMeal": "53029"
        },
        {
            "strMeal": "Oxtail with broad beans",
            "strMealThumb": "https:\/\/www.themealdb.com\/images\/media\/meals\/1520083578.jpg",
            "idMeal": "52943"
        },
        {
            "strMeal": "Paszteciki (Polish Pasties)",
            "strMealThumb": "https:\/\/www.themealdb.com\/images\/media\/meals\/c9a3l31593261890.jpg",
            "idMeal": "53017"
        },
        {
            "strMeal": "Pate Chinois",
            "strMealThumb": "https:\/\/www.themealdb.com\/images\/media\/meals\/yyrrxr1511816289.jpg",
            "idMeal": "52930"
        },
        {
            "strMeal": "Portuguese prego with green piri-piri",
            "strMealThumb": "https:\/\/www.themealdb.com\/images\/media\/meals\/ewcikl1614348364.jpg",
            "idMeal": "53042"
        },
        {
            "strMeal": "Red Peas Soup",
            "strMealThumb": "https:\/\/www.themealdb.com\/images\/media\/meals\/sqpqtp1515365614.jpg",
            "idMeal": "52941"
        },
        {
            "strMeal": "Roti john",
            "strMealThumb": "https:\/\/www.themealdb.com\/images\/media\/meals\/hx335q1619789561.jpg",
            "idMeal": "53052"
        },
        {
            "strMeal": "Soy-Glazed Meatloaves with Wasabi Mashed Potatoes & Roasted Carrots",
            "strMealThumb": "https:\/\/www.themealdb.com\/images\/media\/meals\/o2wb6p1581005243.jpg",
            "idMeal": "52992"
        },
        {
            "strMeal": "Spaghetti Bolognese",
            "strMealThumb": "https:\/\/www.themealdb.com\/images\/media\/meals\/sutysw1468247559.jpg",
            "idMeal": "52770"
        },
        {
            "strMeal": "Steak and Kidney Pie",
            "strMealThumb": "https:\/\/www.themealdb.com\/images\/media\/meals\/qysyss1511558054.jpg",
            "idMeal": "52881"
        },
        {
            "strMeal": "Steak Diane",
            "strMealThumb": "https:\/\/www.themealdb.com\/images\/media\/meals\/vussxq1511882648.jpg",
            "idMeal": "52935"
        },
        {
            "strMeal": "Szechuan Beef",
            "strMealThumb": "https:\/\/www.themealdb.com\/images\/media\/meals\/1529443236.jpg",
            "idMeal": "52950"
        },
        {
            "strMeal": "Traditional Croatian Goulash",
            "strMealThumb": "https:\/\/www.themealdb.com\/images\/media\/meals\/n1hcou1628770088.jpg",
            "idMeal": "53057"
        },
        {
            "strMeal": "Vegetable Shepherd's Pie",
            "strMealThumb": "https:\/\/www.themealdb.com\/images\/media\/meals\/w8umt11583268117.jpg",
            "idMeal": "53000"
        }
    ]
}